Ahri	mag		3	4	8	8
Ashe	strzelec	7	3	2	4
Caitlyn	strzelec	8	2	2	4
Darius	wojownik	9	5	1	4
Irelia	wojownik	7	4	5	5
Leona	obronca		4	8	3	4
Lulu	wsparcie	4	5	7	7
Lux	mag		2	4	9	6
Maokai	obronca		3	8	6	4
Morgana	mag		1	6	8	6
Nami	wsparcie	4	3	7	8
Nidale	zabojca		5	4	7	7
Orianna	mag		4	3	9	10
Riven	wojownik	8	5	1	4
Ryze	mag		2	2	10	3
Sivir	strzelec	9	3	1	3
Sona	wsparcie	5	2	8	1
Udyr	wojownik	8	7	4	5
Vayne	strzelec	10	1	1	7
Viktor	mag		2	5	10	9






	









		
